…
``` r
acc_subgroup %>% 
    arrange(day_of_period)
```

    ## # A tibble: 473,760 x 8
    ##     week day    time_activity accel  hour minute day_of_period range_accel
    ##    <int> <fct>          <int> <dbl> <dbl>  <dbl>         <dbl> <fct>      
    ##  1     1 Sunday             1     1     0      1             8 low        
    ##  2     1 Sunday             2     1     0      2             8 low        
    ##  3     1 Sunday             3     1     0      3             8 low        
    ##  4     1 Sunday             4     1     0      4             8 low        
    ##  5     1 Sunday             5     1     0      5             8 low        
    ##  6     1 Sunday             6     1     0      6             8 low        
    ##  7     1 Sunday             7     1     0      7             8 low        
    ##  8     1 Sunday             8     1     0      8             8 low        
    ##  9     1 Sunday             9     1     0      9             8 low        
    ## 10     1 Sunday            10     1     0     10             8 low        
    ## # ... with 473,750 more rows
…
